{"count":399,"page":1,"page_count":24,"page_size":24,"products":[{"brands":"Nutella,Ferrero","categories":"Snacks,Sweet snacks,Biscuits and cakes,Biscuits,Chocolate biscuits,Filled biscuits,de:Kekse mit Nuss-Nugat-Creme-Füllung","code":"8000500310427","image_front_small_url":"https://images.openfoodfacts.net/images/products/800/050/031/0427/front_en.224.200.jpg","nutrition_data":"on","serving_size":"13.8g"},{"brands":"Ferrero,Nutella","categories":"Petit-déjeuners,Produits à tartiner,Produits à tartiner sucrés,Pâtes à tartiner,Pâtes à tartiner aux noisettes,Pâtes à tartiner au chocolat,Pâtes à tartiner aux noisettes et au cacao","code":"3017620429484","image_front_small_url":"https://images.openfoodfacts.net/images/products/301/762/042/9484/front_en.341.200.jpg","nutrition_data":"on","product_name":"Nutella","serving_size":"15g"},{"brands":"Nutella","categories":"Breakfasts, Spreads, Spreadable fats, Sweet spreads, fr:Pâtes à tartiner, Hazelnut spreads, Chocolate spreads, Cocoa and hazelnuts spreads","code":"59032823","image_front_small_url":"https://images.openfoodfacts.net/images/products/59032823/front_en.171.200.jpg","nutrition_data":"on","product_name":"Nutella","serving_size":"15g"},{"brands":"Nutella, Ferrero","categories":"Breakfasts, Spreads, Sweet spreads, fr:Pâtes à tartiner, Hazelnut spreads, Chocolate spreads, Cocoa and hazelnuts spreads","code":"80895237","image_front_small_url":"https://images.openfoodfacts.net/images/products/80895237/front_en.36.200.jpg","nutrition_data":"on","product_name":"Nutella"},{"brands":"Ferrero,Nutella","categories":"Breakfasts, Spreads, Sweet spreads, fr:Pâtes à tartiner, Hazelnut spreads, Chocolate spreads, Cocoa and hazelnuts spreads","code":"3017620420702","nutrition_data":"on","product_name":"Nutella","serving_size":"15 g (NUTELLA 2)"},{"brands":"Nutella,Ferrero","categories":"Brotaufstriche, Frühstücke, Nougatcremes, Süße Brotaufstriche, en:cocoa-and-hazelnuts-spreads","code":"4008400409627","image_front_small_url":"https://images.openfoodfacts.net/images/products/400/840/040/9627/front.8.200.jpg","nutrition_data":"on","product_name":"Nutella","serving_size":"100g"},{"brands":"FERRERO,NUTELLA","categories":"en:Plant-based foods and beverages,en:Plant-based foods,en:Breakfasts,Namazi,en:Frozen foods,en:Plant-based spreads,en:Sweet spreads,fr:Pâtes à tartiner,en:Hazelnut spreads,en:Chocolate spreads,en:Cocoa and hazelnuts spreads","code":"80176800","image_front_small_url":"https://images.openfoodfacts.net/images/products/80176800/front_en.142.200.jpg","nutrition_data":"on","product_name":"Nutella","serving_size":"15g"},{"brands":"Nutella,Ferrero","categories":"Frühstücke, Brotaufstriche, Süße Brotaufstriche, fr:Pâtes à tartiner, Haselnusscremes, Nougatcremes, Schoko- und Haselnussaufstriche","code":"4008400401829","image_front_small_url":"https://images.openfoodfacts.net/images/products/400/840/040/1829/front.8.200.jpg","nutrition_data":"on","product_name":"Nutella","serving_size":"15g"},{"brands":"Nutella,Ferrero","categories":"Snacks,Sweet snacks,Biscuits and cakes,Biscuits,Chocolate biscuits,Filled biscuits","code":"8000500310397","image_front_small_url":"https://images.openfoodfacts.net/images/products/800/050/031/0397/front_en.73.200.jpg","nutrition_data":"on","product_name":"12 Biscuits","serving_size":"13.8 g"},{"brands":"Nutella, นูเทลล่า","categories":"Snacks, Sweet snacks, Cocoa and its products, Confectioneries, Biscuits and cakes, Biscuits, Wafers, Stuffed wafers, Hazelnut cream stuffed wafers","code":"8000500227848","image_front_small_url":"https://images.openfoodfacts.net/images/products/800/050/022/7848/front_en.240.200.jpg","nutrition_data":"on","product_name":"Biscuits Nutella B-ready x6 gaufrettes fourrées","serving_size":"22g"},{"brands":"Ferrero, Nutella","categories":"Snacks, Breakfasts, Spreads, Sweet snacks, Sweet spreads, fr:Pâtes à tartiner, Hazelnut spreads, Chocolate spreads, Cocoa and hazelnuts spreads","code":"80050100","image_front_small_url":"https://images.openfoodfacts.net/images/products/80050100/front_en.86.200.jpg","nutrition_data":"on","product_name":"Kinder Nutella & CO 52gr - 1,70 Euro","serving_size":"39 g (Nutella 39 g)"},{"brands":"NUTELLA,FERRERO","categories":"Snacks, Breakfasts, Spreads, Sweet snacks, Sweet spreads, Biscuits and cakes, Biscuits, Chocolate biscuits, fr:Pâtes à tartiner","code":"8000500264850","image_front_small_url":"https://images.openfoodfacts.net/images/products/800/050/026/4850/front_en.48.200.jpg","nutrition_data":"on","product_name":"Spécialité croustillante fourrée pâte à tartiner","serving_size":"22 g (22)"},{"brands":"Ferrero,nutella,Nutella & go !","categories":"Frühstücke,Brotaufstriche,Süße Brotaufstriche,fr:Pâtes à tartiner,Haselnusscremes,Nougatcremes,Schoko- und Haselnussaufstriche","code":"8000500045497","image_front_small_url":"https://images.openfoodfacts.net/images/products/800/050/004/5497/front_fr.49.200.jpg","nutrition_data":"on","product_name":"Biscuits Nutella & Go x2 boîtes - 104g","serving_size":"52 g (Bâtonnets 13 g / Nutella 39 g)"},{"brands":"Ferrero, Nutella","categories":"Frühstücke,Brotaufstriche,Süße Brotaufstriche,fr:Pâtes à tartiner,Haselnusscremes,Nougatcremes,Schoko- und Haselnussaufstriche","code":"3017620406003","image_front_small_url":"https://images.openfoodfacts.net/images/products/301/762/040/6003/front_fr.178.200.jpg","nutrition_data":"on","product_name":"Nutella","serving_size":"15g"},{"brands":"Ferrero,Nutella","categories":"Breakfasts, Spreads, Sweet spreads, fr:Pâtes à tartiner, Hazelnut spreads, Chocolate spreads, Cocoa and hazelnuts spreads","code":"5020411121151","image_front_small_url":"https://images.openfoodfacts.net/images/products/502/041/112/1151/front_en.19.200.jpg","nutrition_data":"on","product_name":"Nutella"},{"brands":"Nutella","categories":"Desayunos,Untables,Untables dulces,Cremas para untar,Cremas a base de avellanas,Cremas de chocolate,Cremas de cacao y avellanas","code":"80051671","image_front_small_url":"https://images.openfoodfacts.net/images/products/80051671/front_es.9.200.jpg","nutrition_data":"on","product_name":"Nutella","serving_size":"18 g"},{"brands":"Nutella","code":"8000500847848","image_front_small_url":"https://images.openfoodfacts.net/images/products/800/050/084/7848/front_it.3.200.jpg","product_name":"Nutella b ready"},{"brands":"Ferrero,Nutella","categories":"Petit-déjeuners, Produits à tartiner, Produits à tartiner sucrés, Pâtes à tartiner, Pâtes à tartiner aux noisettes, Pâtes à tartiner au chocolat, Pâtes à tartiner aux noisettes et au cacao","code":"80051428","image_front_small_url":"https://images.openfoodfacts.net/images/products/80051428/front_fr.48.200.jpg","nutrition_data":"on","product_name":"Nutella","serving_size":"15 g"},{"brands":"Ferrero,Nutella","categories":"Petit-déjeuners, Produits à tartiner, Produits à tartiner sucrés, Pâtes à tartiner, Pâtes à tartiner aux noisettes, Pâtes à tartiner au chocolat, Pâtes à tartiner aux noisettes et au cacao","code":"3017620402678","image_front_small_url":"https://images.openfoodfacts.net/images/products/301/762/040/2678/front_fr.77.200.jpg","nutrition_data":"on","product_name":"Nutella pâte à tartiner aux noisettes et au cacao 220g","serving_size":"15 g (NUTELLA)"},{"brands":"Nutella, Frozen bakery","categories":"Snacks, Desserts, Snacks sucrés, Biscuits et gâteaux, Gâteaux, Muffins, Gâteaux au chocolat, Gâteaux fourrés, Muffins au chocolat, Gâteau moelleux au chocolat","code":"8000500366899","image_front_small_url":"https://images.openfoodfacts.net/images/products/800/050/036/6899/front_fr.19.200.jpg","nutrition_data":"on","product_name":"Muffin nutella","serving_size":"86 g (portion)"},{"brands":"Nutella","code":"008400401829","product_name":"Nutela"},{"brands":"Nutella","categories":"Snacks, Breakfasts, Spreads, Sweet snacks, Sweet spreads, Biscuits and cakes, fr:Pâtes à tartiner, Chocolate spreads, en:cocoa-and-hazelnuts-spreads","code":"0009800800056","image_front_small_url":"https://images.openfoodfacts.net/images/products/000/980/080/0056/front_en.32.200.jpg","nutrition_data":"on","product_name":"Nutella & Go !","serving_size":"1 UNIT (52 g)"},{"brands":"Nutella","categories":"Breakfasts, Spreads, Sweet spreads, fr:Pâtes à tartiner, Hazelnut spreads, Chocolate spreads, Cocoa and hazelnuts spreads","code":"8000500340622","nutrition_data":"on","serving_size":"15g"},{"brands":"Nutella","categories":"Breakfasts, Spreads, Sweet spreads, fr:Pâtes à tartiner, Hazelnut spreads, Chocolate spreads, Cocoa and hazelnuts spreads","code":"8000500150245","image_front_small_url":"https://images.openfoodfacts.net/images/products/800/050/015/0245/front_en.47.200.jpg","nutrition_data":"on","product_name":"Nutella pate a tartiner noisettes-cacao 350 gr","serving_size":"15 g (15)"}],"skip":0}

